alembic==1.12.0
annotated-types==0.5.0
asyncmy==0.2.8
black==23.9.1
blinker==1.6.2
certifi==2023.7.22
charset-normalizer==3.2.0
click==8.1.7
Flask==2.3.3
greenlet==2.0.2
idna==3.4
itsdangerous==2.1.2
Jinja2==3.1.2
Mako==1.2.4
mariadb==1.1.7
MarkupSafe==2.1.3
mypy-extensions==1.0.0
packaging==23.1
pathspec==0.11.2
platformdirs==3.10.0
pydantic==2.3.0
pydantic_core==2.6.3
PyJWT==2.8.0
python-dotenv==1.0.0
requests==2.31.0
SQLAlchemy==2.0.20
typing_extensions==4.7.1
urllib3==2.0.5
Werkzeug==2.3.7
